      0.005000        0.445000        0.698000        3.528000       19.820227
      0.015000        0.445000        0.698000        3.528000       19.820227
      0.025000        0.445000        0.698000        3.528000       19.820227
      0.035000        0.445000        0.698000        3.528000       19.820227
      0.045000        0.445000        0.698000        3.528000       19.820227
      0.055000        0.445000        0.698000        3.528000       19.820227
      0.065000        0.445000        0.698000        3.528000       19.820227
      0.075000        0.445000        0.698000        3.528000       19.820227
      0.085000        0.445000        0.698000        3.528000       19.820227
      0.095000        0.445000        0.698000        3.528000       19.820227
      0.105000        0.445000        0.698000        3.528000       19.820227
      0.115000        0.445000        0.698000        3.528000       19.820227
      0.125000        0.445000        0.698000        3.528000       19.820227
      0.135000        0.445000        0.698000        3.528000       19.820227
      0.145000        0.445000        0.698000        3.528000       19.820227
      0.155000        0.445000        0.698000        3.528000       19.820227
      0.165000        0.445000        0.698000        3.528000       19.820227
      0.175000        0.445000        0.698000        3.528000       19.820227
      0.185000        0.445000        0.698000        3.528000       19.820227
      0.195000        0.445000        0.698000        3.528000       19.820227
      0.205000        0.445000        0.698000        3.528000       19.820227
      0.215000        0.445000        0.698000        3.528000       19.820227
      0.225000        0.445000        0.698000        3.528000       19.820227
      0.235000        0.445000        0.698000        3.528000       19.820227
      0.245000        0.445000        0.698000        3.528000       19.820227
      0.255000        0.445000        0.698000        3.528000       19.820227
      0.265000        0.445000        0.698000        3.528000       19.820227
      0.275000        0.445000        0.698000        3.528000       19.820227
      0.285000        0.445000        0.698000        3.528000       19.820227
      0.295000        0.445000        0.698000        3.528000       19.820227
      0.305000        0.445000        0.698000        3.528000       19.820227
      0.315000        0.445000        0.698000        3.528000       19.820227
      0.325000        0.445000        0.698000        3.528000       19.820227
      0.335000        0.445000        0.698000        3.528000       19.820227
      0.345000        0.445000        0.698000        3.528000       19.820227
      0.355000        0.445000        0.698000        3.528000       19.820227
      0.365000        0.445000        0.698000        3.528000       19.820227
      0.375000        0.445000        0.698000        3.528000       19.820227
      0.385000        0.445000        0.698000        3.528000       19.820227
      0.395000        0.445000        0.698000        3.528000       19.820227
      0.405000        0.445000        0.698000        3.528000       19.820227
      0.415000        0.445000        0.698000        3.528000       19.820227
      0.425000        0.445000        0.698000        3.528000       19.820227
      0.435000        0.445000        0.698000        3.528000       19.820227
      0.445000        0.445000        0.698000        3.528000       19.820227
      0.455000        0.445000        0.698000        3.528000       19.820227
      0.465000        0.445000        0.698000        3.528000       19.820227
      0.475000        0.445000        0.698000        3.528000       19.820227
      0.485000        0.445000        0.698000        3.528000       19.820227
      0.495000        0.445000        0.698000        3.528000       19.820227
      0.505000        0.445000        0.698000        3.528000       19.820227
      0.515000        0.445000        0.698000        3.528000       19.820227
      0.525000        0.445000        0.698000        3.528000       19.820227
      0.535000        0.445000        0.698000        3.528000       19.820227
      0.545000        0.445000        0.698000        3.528000       19.820227
      0.555000        0.445000        0.698000        3.528000       19.820227
      0.565000        0.445000        0.698000        3.528000       19.820227
      0.575000        0.445000        0.698000        3.528000       19.820227
      0.585000        0.445000        0.698000        3.528000       19.820227
      0.595000        0.445000        0.698000        3.528000       19.820227
      0.605000        0.445000        0.698000        3.528000       19.820227
      0.615000        0.445000        0.698000        3.528000       19.820227
      0.625000        0.445000        0.698000        3.528000       19.820227
      0.635000        0.445000        0.698000        3.528000       19.820227
      0.645000        0.445000        0.698000        3.528000       19.820227
      0.655000        0.445000        0.698000        3.528000       19.820227
      0.665000        0.445000        0.698000        3.528000       19.820227
      0.675000        0.445000        0.698000        3.528000       19.820227
      0.685000        0.445000        0.698000        3.528000       19.820227
      0.695000        0.445000        0.698000        3.528000       19.820227
      0.705000        0.445000        0.698000        3.528000       19.820227
      0.715000        0.445000        0.698000        3.528000       19.820227
      0.725000        0.445000        0.698000        3.528000       19.820227
      0.735000        0.445000        0.698000        3.528000       19.820227
      0.745000        0.445000        0.698000        3.528000       19.820227
      0.755000        0.445000        0.698000        3.528000       19.820227
      0.765000        0.445000        0.698000        3.528000       19.820227
      0.775000        0.445000        0.698000        3.528000       19.820227
      0.785000        0.445000        0.698000        3.528000       19.820227
      0.795000        0.445000        0.698000        3.528000       19.820227
      0.805000        0.445000        0.698000        3.528000       19.820227
      0.815000        0.445000        0.698000        3.528000       19.820227
      0.825000        0.445000        0.698000        3.528000       19.820227
      0.835000        0.445000        0.698000        3.528000       19.820227
      0.845000        0.445000        0.698000        3.528000       19.820227
      0.855000        0.445000        0.698000        3.528000       19.820227
      0.865000        0.445000        0.698000        3.528000       19.820227
      0.875000        0.445000        0.698000        3.528000       19.820227
      0.885000        0.445000        0.698000        3.528000       19.820227
      0.895000        0.445000        0.698000        3.528000       19.820227
      0.905000        0.445000        0.698000        3.528000       19.820227
      0.915000        0.445000        0.698000        3.528000       19.820227
      0.925000        0.445000        0.698000        3.528000       19.820227
      0.935000        0.445000        0.698000        3.528000       19.820227
      0.945000        0.445000        0.698000        3.528000       19.820227
      0.955000        0.445000        0.698000        3.528000       19.820227
      0.965000        0.445000        0.698000        3.528000       19.820227
      0.975000        0.445000        0.698000        3.528000       19.820227
      0.985000        0.445000        0.698000        3.528000       19.820227
      0.995000        0.445000        0.698000        3.528000       19.820227
      1.005000        0.445000        0.698000        3.528000       19.820227
      1.015000        0.445000        0.698000        3.528000       19.820227
      1.025000        0.445000        0.698000        3.528000       19.820227
      1.035000        0.445000        0.698000        3.528000       19.820227
      1.045000        0.445000        0.698000        3.528000       19.820227
      1.055000        0.445000        0.698000        3.528000       19.820227
      1.065000        0.445000        0.698000        3.528000       19.820227
      1.075000        0.445000        0.698000        3.528000       19.820227
      1.085000        0.445000        0.698000        3.528000       19.820227
      1.095000        0.445000        0.698000        3.528000       19.820227
      1.105000        0.445000        0.698000        3.528000       19.820227
      1.115000        0.445000        0.698000        3.528000       19.820227
      1.125000        0.445000        0.698000        3.528000       19.820227
      1.135000        0.445000        0.698000        3.528000       19.820227
      1.145000        0.445000        0.698000        3.528000       19.820227
      1.155000        0.445000        0.698000        3.528000       19.820227
      1.165000        0.445000        0.698000        3.528000       19.820227
      1.175000        0.445000        0.698000        3.528000       19.820227
      1.185000        0.445000        0.698000        3.528000       19.820227
      1.195000        0.445000        0.698000        3.528000       19.820227
      1.205000        0.445000        0.698000        3.528000       19.820227
      1.215000        0.445000        0.698000        3.528000       19.820227
      1.225000        0.445000        0.698000        3.528000       19.820227
      1.235000        0.445000        0.698000        3.528000       19.820227
      1.245000        0.445000        0.698000        3.528000       19.820227
      1.255000        0.445000        0.698000        3.528000       19.820227
      1.265000        0.445000        0.698000        3.528000       19.820227
      1.275000        0.445000        0.698000        3.528000       19.820227
      1.285000        0.445000        0.698000        3.528000       19.820227
      1.295000        0.445000        0.698000        3.528000       19.820227
      1.305000        0.445000        0.698000        3.528000       19.820227
      1.315000        0.445000        0.698000        3.528000       19.820227
      1.325000        0.445000        0.698000        3.528000       19.820227
      1.335000        0.445000        0.698000        3.528000       19.820227
      1.345000        0.445000        0.698000        3.528000       19.820227
      1.355000        0.445000        0.698000        3.528000       19.820227
      1.365000        0.445000        0.698000        3.528000       19.820227
      1.375000        0.445000        0.698000        3.528000       19.820227
      1.385000        0.445000        0.698000        3.528000       19.820227
      1.395000        0.445000        0.698000        3.528000       19.820227
      1.405000        0.445000        0.698000        3.528000       19.820227
      1.415000        0.445000        0.698000        3.528000       19.820227
      1.425000        0.445000        0.698000        3.528000       19.820227
      1.435000        0.445000        0.698000        3.528000       19.820227
      1.445000        0.445000        0.698000        3.528000       19.820227
      1.455000        0.445000        0.698000        3.528000       19.820227
      1.465000        0.445000        0.698000        3.528000       19.820227
      1.475000        0.445000        0.698000        3.528000       19.820227
      1.485000        0.445000        0.698000        3.528000       19.820227
      1.495000        0.445000        0.698000        3.528000       19.820227
      1.505000        0.445000        0.698000        3.528000       19.820227
      1.515000        0.445000        0.698000        3.528000       19.820227
      1.525000        0.445000        0.698000        3.528000       19.820227
      1.535000        0.445000        0.698000        3.528000       19.820227
      1.545000        0.445000        0.698000        3.528000       19.820227
      1.555000        0.445000        0.698000        3.528000       19.820227
      1.565000        0.445000        0.698000        3.528000       19.820227
      1.575000        0.445000        0.698000        3.528000       19.820227
      1.585000        0.444261        0.703535        3.519800       19.807055
      1.595000        0.443407        0.709945        3.510327       19.791809
      1.605000        0.442554        0.716355        3.500877       19.776571
      1.615000        0.441702        0.722766        3.491446       19.761333
      1.625000        0.440851        0.729176        3.482039       19.746107
      1.635000        0.440002        0.735586        3.472652       19.730885
      1.645000        0.439154        0.741997        3.463288       19.715668
      1.655000        0.438308        0.748407        3.453943       19.700453
      1.665000        0.437462        0.754817        3.444622       19.685249
      1.675000        0.436618        0.761227        3.435323       19.670050
      1.685000        0.435776        0.767637        3.426046       19.654858
      1.695000        0.434935        0.774048        3.416788       19.639669
      1.705000        0.434095        0.780458        3.407553       19.624487
      1.715000        0.433256        0.786868        3.398338       19.609310
      1.725000        0.432418        0.793279        3.389145       19.594139
      1.735000        0.431582        0.799689        3.379974       19.578978
      1.745000        0.430747        0.806099        3.370823       19.563816
      1.755000        0.429914        0.812509        3.361695       19.548664
      1.765000        0.429081        0.818920        3.352587       19.533518
      1.775000        0.428251        0.825330        3.343503       19.518381
      1.785000        0.427421        0.831740        3.334436       19.503244
      1.795000        0.426592        0.838150        3.325392       19.488113
      1.805000        0.425765        0.844560        3.316369       19.472994
      1.815000        0.424939        0.850971        3.307367       19.457876
      1.825000        0.424115        0.857381        3.298385       19.442760
      1.835000        0.423291        0.863791        3.289425       19.427658
      1.845000        0.422469        0.870202        3.280484       19.412556
      1.855000        0.421649        0.876612        3.271566       19.397463
      1.865000        0.420829        0.883022        3.262669       19.382376
      1.875000        0.420011        0.889432        3.253791       19.367292
      1.885000        0.419194        0.895843        3.244935       19.352219
      1.895000        0.418379        0.902253        3.236098       19.337147
      1.905000        0.417564        0.908663        3.227285       19.322083
      1.915000        0.416751        0.915073        3.218489       19.307024
      1.925000        0.415939        0.921484        3.209715       19.291971
      1.935000        0.415129        0.927894        3.200962       19.276926
      1.945000        0.414320        0.934304        3.192231       19.261887
      1.955000        0.413511        0.940714        3.183517       19.246849
      1.965000        0.412705        0.947125        3.174825       19.231819
      1.975000        0.411899        0.953535        3.166152       19.216795
      1.985000        0.411095        0.959945        3.157501       19.201780
      1.995000        0.410292        0.966355        3.148870       19.186768
      2.005000        0.409490        0.972766        3.140258       19.171759
      2.015000        0.408690        0.979176        3.131668       19.156759
      2.025000        0.407890        0.985586        3.123096       19.141766
      2.035000        0.407093        0.991997        3.114548       19.126781
      2.045000        0.406296        0.998407        3.106017       19.111799
      2.055000        0.405500        1.004817        3.097507       19.096821
      2.065000        0.404706        1.011227        3.089015       19.081848
      2.075000        0.403913        1.017638        3.080545       19.066885
      2.085000        0.403121        1.024048        3.072095       19.051928
      2.095000        0.402331        1.030458        3.063664       19.036974
      2.105000        0.401541        1.036868        3.055252       19.022026
      2.115000        0.400753        1.043279        3.046861       19.007084
      2.125000        0.399967        1.049689        3.038492       18.992151
      2.135000        0.399181        1.056099        3.030138       18.977219
      2.145000        0.398397        1.062509        3.021807       18.962297
      2.155000        0.397614        1.068920        3.013494       18.947378
      2.165000        0.396832        1.075330        3.005203       18.932470
      2.175000        0.396051        1.081740        2.996929       18.917562
      2.185000        0.395272        1.088150        2.988676       18.902662
      2.195000        0.394494        1.094561        2.980441       18.887766
      2.205000        0.393717        1.100971        2.972226       18.872879
      2.215000        0.392941        1.107381        2.964031       18.857996
      2.225000        0.392167        1.113791        2.955857       18.843124
      2.235000        0.391393        1.120201        2.947700       18.828249
      2.245000        0.390621        1.126612        2.939563       18.813385
      2.255000        0.389850        1.133022        2.931445       18.798525
      2.265000        0.389081        1.139432        2.923345       18.783672
      2.275000        0.388312        1.145843        2.915266       18.768824
      2.285000        0.387545        1.152253        2.907205       18.753983
      2.295000        0.386779        1.158663        2.899165       18.739151
      2.305000        0.386014        1.165074        2.891142       18.724318
      2.315000        0.385251        1.171484        2.883140       18.709496
      2.325000        0.384488        1.177894        2.875155       18.694677
      2.335000        0.383727        1.184304        2.867190       18.679867
      2.345000        0.382967        1.190714        2.859244       18.665060
      2.355000        0.382209        1.197125        2.851317       18.650261
      2.365000        0.381451        1.203535        2.843408       18.635466
      2.375000        0.380695        1.209945        2.835518       18.620676
      2.385000        0.379940        1.216356        2.827646       18.605888
      2.395000        0.379186        1.222766        2.819794       18.591116
      2.405000        0.378433        1.229176        2.811962       18.576347
      2.415000        0.377682        1.235586        2.804146       18.561579
      2.425000        0.376931        1.241996        2.796351       18.546822
      2.435000        0.376182        1.248407        2.788573       18.532066
      2.445000        0.375434        1.254817        2.780814       18.517321
      2.455000        0.374687        1.261227        2.773072       18.502577
      2.465000        0.373942        1.267637        2.765351       18.487843
      2.475000        0.373197        1.274048        2.757647       18.473114
      2.485000        0.372454        1.280458        2.749964       18.458393
      2.495000        0.371712        1.286868        2.742296       18.443672
      2.505000        0.370971        1.293278        2.734647       18.428961
      2.515000        0.370232        1.299689        2.727016       18.414253
      2.525000        0.369493        1.306099        2.719404       18.399551
      2.535000        0.368756        1.312509        2.711811       18.384857
      2.545000        0.368020        1.318920        2.704234       18.370167
      2.555000        0.367285        1.325330        2.696678       18.355486
      2.565000        0.366551        1.331740        2.689137       18.340805
      2.575000        0.365819        1.338150        2.681618       18.326138
      2.585000        0.365087        1.344561        2.674114       18.311472
      2.595000        0.364357        1.350971        2.666629       18.296814
      2.605000        0.363628        1.357381        2.659162       18.282162
      2.615000        0.362900        1.363791        2.651712       18.267513
      2.625000        0.362173        1.370202        2.644280       18.252871
      2.635000        0.361448        1.376612        2.636867       18.238235
      2.645000        0.360723        1.383022        2.629470       18.223602
      2.655000        0.360000        1.389432        2.622092       18.208979
      2.665000        0.359278        1.395843        2.614733       18.194365
      2.675000        0.358557        1.402253        2.607390       18.179749
      2.685000        0.357837        1.408663        2.600065       18.165144
      2.695000        0.357118        1.415073        2.592757       18.150541
      2.705000        0.356401        1.421484        2.585469       18.135950
      2.715000        0.355685        1.427894        2.578196       18.121357
      2.725000        0.354970        1.434304        2.570942       18.106775
      2.735000        0.354256        1.440714        2.563705       18.092197
      2.745000        0.353543        1.447125        2.556487       18.077629
      2.755000        0.352831        1.453535        2.549284       18.063061
      2.765000        0.352121        1.459945        2.542100       18.048506
      2.775000        0.351411        1.466355        2.534931       18.033947
      2.785000        0.350703        1.472766        2.527781       18.019400
      2.795000        0.349996        1.479176        2.520649       18.004858
      2.805000        0.349290        1.485586        2.513533       17.990320
      2.815000        0.348585        1.491996        2.506435       17.975792
      2.825000        0.347881        1.498407        2.499353       17.961264
      2.835000        0.347179        1.504817        2.492291       17.946751
      2.845000        0.346477        1.511227        2.485244       17.932236
      2.855000        0.345777        1.517637        2.478214       17.917730
      2.865000        0.345078        1.524048        2.471201       17.903227
      2.875000        0.344568        1.528723        2.466098       17.892656
      2.885000        0.344568        1.528723        2.466098       17.892656
      2.895000        0.344568        1.528723        2.466098       17.892656
      2.905000        0.344568        1.528723        2.466098       17.892656
      2.915000        0.344568        1.528723        2.466098       17.892656
      2.925000        0.344568        1.528723        2.466098       17.892656
      2.935000        0.344568        1.528723        2.466098       17.892656
      2.945000        0.344568        1.528723        2.466098       17.892656
      2.955000        0.344568        1.528723        2.466098       17.892656
      2.965000        0.344568        1.528723        2.466098       17.892656
      2.975000        0.344568        1.528723        2.466098       17.892656
      2.985000        0.344568        1.528723        2.466098       17.892656
      2.995000        0.344568        1.528723        2.466098       17.892656
      3.005000        0.344568        1.528723        2.466098       17.892656
      3.015000        0.344568        1.528723        2.466098       17.892656
      3.025000        0.344568        1.528723        2.466098       17.892656
      3.035000        0.344568        1.528723        2.466098       17.892656
      3.045000        0.344568        1.528723        2.466098       17.892656
      3.055000        0.344568        1.528723        2.466098       17.892656
      3.065000        0.344568        1.528723        2.466098       17.892656
      3.075000        0.344568        1.528723        2.466098       17.892656
      3.085000        0.344568        1.528723        2.466098       17.892656
      3.095000        0.344568        1.528723        2.466098       17.892656
      3.105000        0.344568        1.528723        2.466098       17.892656
      3.115000        0.344568        1.528723        2.466098       17.892656
      3.125000        0.344568        1.528723        2.466098       17.892656
      3.135000        0.344568        1.528723        2.466098       17.892656
      3.145000        0.344568        1.528723        2.466098       17.892656
      3.155000        0.344568        1.528723        2.466098       17.892656
      3.165000        0.344568        1.528723        2.466098       17.892656
      3.175000        0.344568        1.528723        2.466098       17.892656
      3.185000        0.344568        1.528723        2.466098       17.892656
      3.195000        0.344568        1.528723        2.466098       17.892656
      3.205000        0.344568        1.528723        2.466098       17.892656
      3.215000        0.344568        1.528723        2.466098       17.892656
      3.225000        0.344568        1.528723        2.466098       17.892656
      3.235000        0.344568        1.528723        2.466098       17.892656
      3.245000        0.344568        1.528723        2.466098       17.892656
      3.255000        0.344568        1.528723        2.466098       17.892656
      3.265000        0.344568        1.528723        2.466098       17.892656
      3.275000        0.344568        1.528723        2.466098       17.892656
      3.285000        0.344568        1.528723        2.466098       17.892656
      3.295000        0.344568        1.528723        2.466098       17.892656
      3.305000        0.344568        1.528723        2.466098       17.892656
      3.315000        0.344568        1.528723        2.466098       17.892656
      3.325000        0.344568        1.528723        2.466098       17.892656
      3.335000        0.344568        1.528723        2.466098       17.892656
      3.345000        0.344568        1.528723        2.466098       17.892656
      3.355000        0.344568        1.528723        2.466098       17.892656
      3.365000        0.344568        1.528723        2.466098       17.892656
      3.375000        0.344568        1.528723        2.466098       17.892656
      3.385000        0.344568        1.528723        2.466098       17.892656
      3.395000        0.344568        1.528723        2.466098       17.892656
      3.405000        0.344568        1.528723        2.466098       17.892656
      3.415000        0.344568        1.528723        2.466098       17.892656
      3.425000        0.344568        1.528723        2.466098       17.892656
      3.435000        0.344568        1.528723        2.466098       17.892656
      3.445000        0.344568        1.528723        2.466098       17.892656
      3.455000        0.344568        1.528723        2.466098       17.892656
      3.465000        0.344568        1.528723        2.466098       17.892656
      3.475000        0.344568        1.528723        2.466098       17.892656
      3.485000        0.344568        1.528723        2.466098       17.892656
      3.495000        0.344568        1.528723        2.466098       17.892656
      3.505000        0.344568        1.528723        2.466098       17.892656
      3.515000        0.344568        1.528723        2.466098       17.892656
      3.525000        0.344568        1.528723        2.466098       17.892656
      3.535000        0.344568        1.528723        2.466098       17.892656
      3.545000        0.344568        1.528723        2.466098       17.892656
      3.555000        0.344568        1.528723        2.466098       17.892656
      3.565000        0.344568        1.528723        2.466098       17.892656
      3.575000        0.344568        1.528723        2.466098       17.892656
      3.585000        0.344568        1.528723        2.466098       17.892656
      3.595000        0.344568        1.528723        2.466098       17.892656
      3.605000        0.344568        1.528723        2.466098       17.892656
      3.615000        0.344568        1.528723        2.466098       17.892656
      3.625000        0.344568        1.528723        2.466098       17.892656
      3.635000        0.344568        1.528723        2.466098       17.892656
      3.645000        0.344568        1.528723        2.466098       17.892656
      3.655000        0.344568        1.528723        2.466098       17.892656
      3.665000        0.344568        1.528723        2.466098       17.892656
      3.675000        0.344568        1.528723        2.466098       17.892656
      3.685000        0.344568        1.528723        2.466098       17.892656
      3.695000        0.344568        1.528723        2.466098       17.892656
      3.705000        0.344568        1.528723        2.466098       17.892656
      3.715000        0.344568        1.528723        2.466098       17.892656
      3.725000        0.344568        1.528723        2.466098       17.892656
      3.735000        0.344568        1.528723        2.466098       17.892656
      3.745000        0.344568        1.528723        2.466098       17.892656
      3.755000        0.344568        1.528723        2.466098       17.892656
      3.765000        0.344568        1.528723        2.466098       17.892656
      3.775000        0.344568        1.528723        2.466098       17.892656
      3.785000        0.344568        1.528723        2.466098       17.892656
      3.795000        0.344568        1.528723        2.466098       17.892656
      3.805000        0.344568        1.528723        2.466098       17.892656
      3.815000        0.344568        1.528723        2.466098       17.892656
      3.825000        0.344568        1.528723        2.466098       17.892656
      3.835000        0.344568        1.528723        2.466098       17.892656
      3.845000        0.344568        1.528723        2.466098       17.892656
      3.855000        0.344568        1.528723        2.466098       17.892656
      3.865000        0.344568        1.528723        2.466098       17.892656
      3.875000        0.344568        1.528723        2.466098       17.892656
      3.885000        0.344568        1.528723        2.466098       17.892656
      3.895000        0.344568        1.528723        2.466098       17.892656
      3.905000        0.344568        1.528723        2.466098       17.892656
      3.915000        0.344568        1.528723        2.466098       17.892656
      3.925000        0.344568        1.528723        2.466098       17.892656
      3.935000        0.344568        1.528723        2.466098       17.892656
      3.945000        0.344568        1.528723        2.466098       17.892656
      3.955000        0.344568        1.528723        2.466098       17.892656
      3.965000        0.344568        1.528723        2.466098       17.892656
      3.975000        0.344568        1.528723        2.466098       17.892656
      3.985000        0.344568        1.528723        2.466098       17.892656
      3.995000        0.344568        1.528723        2.466098       17.892656
      4.005000        0.344568        1.528723        2.466098       17.892656
      4.015000        0.344568        1.528723        2.466098       17.892656
      4.025000        0.344568        1.528723        2.466098       17.892656
      4.035000        0.344568        1.528723        2.466098       17.892656
      4.045000        0.344568        1.528723        2.466098       17.892656
      4.055000        0.344568        1.528723        2.466098       17.892656
      4.065000        0.344568        1.528723        2.466098       17.892656
      4.075000        0.344568        1.528723        2.466098       17.892656
      4.085000        0.344568        1.528723        2.466098       17.892656
      4.095000        0.344568        1.528723        2.466098       17.892656
      4.105000        0.344568        1.528723        2.466098       17.892656
      4.115000        0.344568        1.528723        2.466098       17.892656
      4.125000        0.344568        1.528723        2.466098       17.892656
      4.135000        0.344568        1.528723        2.466098       17.892656
      4.145000        0.344568        1.528723        2.466098       17.892656
      4.155000        0.344568        1.528723        2.466098       17.892656
      4.165000        0.344568        1.528723        2.466098       17.892656
      4.175000        0.344568        1.528723        2.466098       17.892656
      4.185000        0.344568        1.528723        2.466098       17.892656
      4.195000        0.344568        1.528723        2.466098       17.892656
      4.205000        0.344568        1.528723        2.466098       17.892656
      4.215000        0.344568        1.528723        2.466098       17.892656
      4.225000        0.344568        1.528723        2.466098       17.892656
      4.235000        0.344568        1.528723        2.466098       17.892656
      4.245000        0.344568        1.528723        2.466098       17.892656
      4.255000        0.344568        1.528723        2.466098       17.892656
      4.265000        0.344568        1.528723        2.466098       17.892656
      4.275000        0.344568        1.528723        2.466098       17.892656
      4.285000        0.344568        1.528723        2.466098       17.892656
      4.295000        0.344568        1.528723        2.466098       17.892656
      4.305000        0.344568        1.528723        2.466098       17.892656
      4.315000        0.344568        1.528723        2.466098       17.892656
      4.325000        0.344568        1.528723        2.466098       17.892656
      4.335000        0.344568        1.528723        2.466098       17.892656
      4.345000        0.344568        1.528723        2.466098       17.892656
      4.355000        0.344568        1.528723        2.466098       17.892656
      4.365000        0.344568        1.528723        2.466098       17.892656
      4.375000        0.344568        1.528723        2.466098       17.892656
      4.385000        0.344568        1.528723        2.466098       17.892656
      4.395000        0.344568        1.528723        2.466098       17.892656
      4.405000        0.344568        1.528723        2.466098       17.892656
      4.415000        0.344568        1.528723        2.466098       17.892656
      4.425000        0.344568        1.528723        2.466098       17.892656
      4.435000        0.344568        1.528723        2.466098       17.892656
      4.445000        0.344568        1.528723        2.466098       17.892656
      4.455000        0.344568        1.528723        2.466098       17.892656
      4.465000        0.344568        1.528723        2.466098       17.892656
      4.475000        0.344568        1.528723        2.466098       17.892656
      4.485000        0.344568        1.528723        2.466098       17.892656
      4.495000        0.344568        1.528723        2.466098       17.892656
      4.505000        0.344568        1.528723        2.466098       17.892656
      4.515000        0.344568        1.528723        2.466098       17.892656
      4.525000        0.344568        1.528723        2.466098       17.892656
      4.535000        0.344568        1.528723        2.466098       17.892656
      4.545000        0.344568        1.528723        2.466098       17.892656
      4.555000        0.344568        1.528723        2.466098       17.892656
      4.565000        0.344568        1.528723        2.466098       17.892656
      4.575000        0.344568        1.528723        2.466098       17.892656
      4.585000        0.344568        1.528723        2.466098       17.892656
      4.595000        0.344568        1.528723        2.466098       17.892656
      4.605000        0.344568        1.528723        2.466098       17.892656
      4.615000        0.344568        1.528723        2.466098       17.892656
      4.625000        0.344568        1.528723        2.466098       17.892656
      4.635000        0.344568        1.528723        2.466098       17.892656
      4.645000        0.344568        1.528723        2.466098       17.892656
      4.655000        0.344568        1.528723        2.466098       17.892656
      4.665000        0.344568        1.528723        2.466098       17.892656
      4.675000        0.344568        1.528723        2.466098       17.892656
      4.685000        0.344568        1.528723        2.466098       17.892656
      4.695000        0.344568        1.528723        2.466098       17.892656
      4.705000        0.344568        1.528723        2.466098       17.892656
      4.715000        0.344568        1.528723        2.466098       17.892656
      4.725000        0.344568        1.528723        2.466098       17.892656
      4.735000        0.344568        1.528723        2.466098       17.892656
      4.745000        0.344568        1.528723        2.466098       17.892656
      4.755000        0.344568        1.528723        2.466098       17.892656
      4.765000        0.344568        1.528723        2.466098       17.892656
      4.775000        0.344568        1.528723        2.466098       17.892656
      4.785000        0.344568        1.528723        2.466098       17.892656
      4.795000        0.344568        1.528723        2.466098       17.892656
      4.805000        0.344568        1.528723        2.466098       17.892656
      4.815000        0.344568        1.528723        2.466098       17.892656
      4.825000        0.344568        1.528723        2.466098       17.892656
      4.835000        0.344568        1.528723        2.466098       17.892656
      4.845000        0.344568        1.528723        2.466098       17.892656
      4.855000        0.344568        1.528723        2.466098       17.892656
      4.865000        0.344568        1.528723        2.466098       17.892656
      4.875000        0.344568        1.528723        2.466098       17.892656
      4.885000        0.344568        1.528723        2.466098       17.892656
      4.895000        0.344568        1.528723        2.466098       17.892656
      4.905000        0.344568        1.528723        2.466098       17.892656
      4.915000        0.344568        1.528723        2.466098       17.892656
      4.925000        0.344568        1.528723        2.466098       17.892656
      4.935000        0.344568        1.528723        2.466098       17.892656
      4.945000        0.344568        1.528723        2.466098       17.892656
      4.955000        0.344568        1.528723        2.466098       17.892656
      4.965000        0.344568        1.528723        2.466098       17.892656
      4.975000        0.344568        1.528723        2.466098       17.892656
      4.985000        0.344568        1.528723        2.466098       17.892656
      4.995000        0.344568        1.528723        2.466098       17.892656
      5.005000        0.344568        1.528723        2.466098       17.892656
      5.015000        0.344568        1.528723        2.466098       17.892656
      5.025000        0.344568        1.528723        2.466098       17.892656
      5.035000        0.344568        1.528723        2.466098       17.892656
      5.045000        0.344568        1.528723        2.466098       17.892656
      5.055000        0.344568        1.528723        2.466098       17.892656
      5.065000        0.344568        1.528723        2.466098       17.892656
      5.075000        0.344568        1.528723        2.466098       17.892656
      5.085000        0.344568        1.528723        2.466098       17.892656
      5.095000        0.344568        1.528723        2.466098       17.892656
      5.105000        0.344568        1.528723        2.466098       17.892656
      5.115000        0.344568        1.528723        2.466098       17.892656
      5.125000        0.344568        1.528723        2.466098       17.892656
      5.135000        0.344568        1.528723        2.466098       17.892656
      5.145000        0.344568        1.528723        2.466098       17.892656
      5.155000        0.344568        1.528723        2.466098       17.892656
      5.165000        0.344568        1.528723        2.466098       17.892656
      5.175000        0.344568        1.528723        2.466098       17.892656
      5.185000        0.344568        1.528723        2.466098       17.892656
      5.195000        0.344568        1.528723        2.466098       17.892656
      5.205000        0.344568        1.528723        2.466098       17.892656
      5.215000        0.344568        1.528723        2.466098       17.892656
      5.225000        0.344568        1.528723        2.466098       17.892656
      5.235000        0.344568        1.528723        2.466098       17.892656
      5.245000        0.344568        1.528723        2.466098       17.892656
      5.255000        0.344568        1.528723        2.466098       17.892656
      5.265000        0.344568        1.528723        2.466098       17.892656
      5.275000        0.344568        1.528723        2.466098       17.892656
      5.285000        0.344568        1.528723        2.466098       17.892656
      5.295000        0.344568        1.528723        2.466098       17.892656
      5.305000        0.344568        1.528723        2.466098       17.892656
      5.315000        0.344568        1.528723        2.466098       17.892656
      5.325000        0.344568        1.528723        2.466098       17.892656
      5.335000        0.344568        1.528723        2.466098       17.892656
      5.345000        0.344568        1.528723        2.466098       17.892656
      5.355000        0.344568        1.528723        2.466098       17.892656
      5.365000        0.344568        1.528723        2.466098       17.892656
      5.375000        0.344568        1.528723        2.466098       17.892656
      5.385000        0.344568        1.528723        2.466098       17.892656
      5.395000        0.344568        1.528723        2.466098       17.892656
      5.405000        0.344568        1.528723        2.466098       17.892656
      5.415000        0.344568        1.528723        2.466098       17.892656
      5.425000        0.344568        1.528723        2.466098       17.892656
      5.435000        0.344568        1.528723        2.466098       17.892656
      5.445000        0.344568        1.528723        2.466098       17.892656
      5.455000        0.344568        1.528723        2.466098       17.892656
      5.465000        0.344568        1.528723        2.466098       17.892656
      5.475000        0.344568        1.528723        2.466098       17.892656
      5.485000        0.344568        1.528723        2.466098       17.892656
      5.495000        0.344568        1.528723        2.466098       17.892656
      5.505000        0.344568        1.528723        2.466098       17.892656
      5.515000        0.344568        1.528723        2.466098       17.892656
      5.525000        0.344568        1.528723        2.466098       17.892656
      5.535000        0.344568        1.528723        2.466098       17.892656
      5.545000        0.344568        1.528723        2.466098       17.892656
      5.555000        0.344568        1.528723        2.466098       17.892656
      5.565000        0.344568        1.528723        2.466098       17.892656
      5.575000        0.344568        1.528723        2.466098       17.892656
      5.585000        0.344568        1.528723        2.466098       17.892656
      5.595000        0.344568        1.528723        2.466098       17.892656
      5.605000        0.344568        1.528723        2.466098       17.892656
      5.615000        0.344568        1.528723        2.466098       17.892656
      5.625000        0.344568        1.528723        2.466098       17.892656
      5.635000        0.344568        1.528723        2.466098       17.892656
      5.645000        0.344568        1.528723        2.466098       17.892656
      5.655000        0.344568        1.528723        2.466098       17.892656
      5.665000        0.344568        1.528723        2.466098       17.892656
      5.675000        0.344568        1.528723        2.466098       17.892656
      5.685000        0.344568        1.528723        2.466098       17.892656
      5.695000        0.344568        1.528723        2.466098       17.892656
      5.705000        0.344568        1.528723        2.466098       17.892656
      5.715000        0.344568        1.528723        2.466098       17.892656
      5.725000        0.344568        1.528723        2.466098       17.892656
      5.735000        0.344568        1.528723        2.466098       17.892656
      5.745000        0.344568        1.528723        2.466098       17.892656
      5.755000        0.344568        1.528723        2.466098       17.892656
      5.765000        0.344568        1.528723        2.466098       17.892656
      5.775000        0.344568        1.528723        2.466098       17.892656
      5.785000        0.344568        1.528723        2.466098       17.892656
      5.795000        0.344568        1.528723        2.466098       17.892656
      5.805000        0.344568        1.528723        2.466098       17.892656
      5.815000        0.344568        1.528723        2.466098       17.892656
      5.825000        0.344568        1.528723        2.466098       17.892656
      5.835000        0.344568        1.528723        2.466098       17.892656
      5.845000        0.344568        1.528723        2.466098       17.892656
      5.855000        0.344568        1.528723        2.466098       17.892656
      5.865000        0.344568        1.528723        2.466098       17.892656
      5.875000        0.344568        1.528723        2.466098       17.892656
      5.885000        0.344568        1.528723        2.466098       17.892656
      5.895000        0.344568        1.528723        2.466098       17.892656
      5.905000        0.344568        1.528723        2.466098       17.892656
      5.915000        0.344568        1.528723        2.466098       17.892656
      5.925000        0.344568        1.528723        2.466098       17.892656
      5.935000        0.344568        1.528723        2.466098       17.892656
      5.945000        0.344568        1.528723        2.466098       17.892656
      5.955000        0.344568        1.528723        2.466098       17.892656
      5.965000        0.344568        1.528723        2.466098       17.892656
      5.975000        0.344568        1.528723        2.466098       17.892656
      5.985000        0.344568        1.528723        2.466098       17.892656
      5.995000        0.344568        1.528723        2.466098       17.892656
      6.005000        0.344568        1.528723        2.466098       17.892656
      6.015000        0.344568        1.528723        2.466098       17.892656
      6.025000        0.344568        1.528723        2.466098       17.892656
      6.035000        0.344568        1.528723        2.466098       17.892656
      6.045000        0.344568        1.528723        2.466098       17.892656
      6.055000        0.344568        1.528723        2.466098       17.892656
      6.065000        0.344568        1.528723        2.466098       17.892656
      6.075000        0.344568        1.528723        2.466098       17.892656
      6.085000        0.344568        1.528723        2.466098       17.892656
      6.095000        0.344568        1.528723        2.466098       17.892656
      6.105000        0.344568        1.528723        2.466098       17.892656
      6.115000        0.344568        1.528723        2.466098       17.892656
      6.125000        0.344568        1.528723        2.466098       17.892656
      6.135000        0.344568        1.528723        2.466098       17.892656
      6.145000        0.344568        1.528723        2.466098       17.892656
      6.155000        0.344568        1.528723        2.466098       17.892656
      6.165000        0.344568        1.528723        2.466098       17.892656
      6.175000        0.344568        1.528723        2.466098       17.892656
      6.185000        0.344568        1.528723        2.466098       17.892656
      6.195000        0.344568        1.528723        2.466098       17.892656
      6.205000        0.344568        1.528723        2.466098       17.892656
      6.215000        0.344568        1.528723        2.466098       17.892656
      6.225000        0.344568        1.528723        2.466098       17.892656
      6.235000        0.344568        1.528723        2.466098       17.892656
      6.245000        0.344568        1.528723        2.466098       17.892656
      6.255000        0.344568        1.528723        2.466098       17.892656
      6.265000        0.344568        1.528723        2.466098       17.892656
      6.275000        0.344568        1.528723        2.466098       17.892656
      6.285000        0.344568        1.528723        2.466098       17.892656
      6.295000        0.344568        1.528723        2.466098       17.892656
      6.305000        0.344568        1.528723        2.466098       17.892656
      6.315000        0.344568        1.528723        2.466098       17.892656
      6.325000        0.344568        1.528723        2.466098       17.892656
      6.335000        0.344568        1.528723        2.466098       17.892656
      6.345000        0.344568        1.528723        2.466098       17.892656
      6.355000        0.344568        1.528723        2.466098       17.892656
      6.365000        0.344568        1.528723        2.466098       17.892656
      6.375000        0.344568        1.528723        2.466098       17.892656
      6.385000        0.344568        1.528723        2.466098       17.892656
      6.395000        0.344568        1.528723        2.466098       17.892656
      6.405000        0.344568        1.528723        2.466098       17.892656
      6.415000        0.344568        1.528723        2.466098       17.892656
      6.425000        0.344568        1.528723        2.466098       17.892656
      6.435000        0.344568        1.528723        2.466098       17.892656
      6.445000        0.344568        1.528723        2.466098       17.892656
      6.455000        0.344568        1.528723        2.466098       17.892656
      6.465000        0.344568        1.528723        2.466098       17.892656
      6.475000        0.344568        1.528723        2.466098       17.892656
      6.485000        0.344568        1.528723        2.466098       17.892656
      6.495000        0.344568        1.528723        2.466098       17.892656
      6.505000        0.344568        1.528723        2.466098       17.892656
      6.515000        0.344568        1.528723        2.466098       17.892656
      6.525000        0.344568        1.528723        2.466098       17.892656
      6.535000        0.344568        1.528723        2.466098       17.892656
      6.545000        0.344568        1.528723        2.466098       17.892656
      6.555000        0.344568        1.528723        2.466098       17.892656
      6.565000        0.344568        1.528723        2.466098       17.892656
      6.575000        0.344568        1.528723        2.466098       17.892656
      6.585000        0.344568        1.528723        2.466098       17.892656
      6.595000        0.344568        1.528723        2.466098       17.892656
      6.605000        0.344568        1.528723        2.466098       17.892656
      6.615000        0.344568        1.528723        2.466098       17.892656
      6.625000        0.344568        1.528723        2.466098       17.892656
      6.635000        0.344568        1.528723        2.466098       17.892656
      6.645000        0.344568        1.528723        2.466098       17.892656
      6.655000        0.344568        1.528723        2.466098       17.892656
      6.665000        0.344568        1.528723        2.466098       17.892656
      6.675000        0.344568        1.528723        2.466098       17.892656
      6.685000        0.344568        1.528723        2.466098       17.892656
      6.695000        0.344568        1.528723        2.466098       17.892656
      6.705000        0.344568        1.528723        2.466098       17.892656
      6.715000        0.344568        1.528723        2.466098       17.892656
      6.725000        0.344568        1.528723        2.466098       17.892656
      6.735000        0.344568        1.528723        2.466098       17.892656
      6.745000        0.344568        1.528723        2.466098       17.892656
      6.755000        0.344568        1.528723        2.466098       17.892656
      6.765000        0.344568        1.528723        2.466098       17.892656
      6.775000        0.344568        1.528723        2.466098       17.892656
      6.785000        0.344568        1.528723        2.466098       17.892656
      6.795000        0.344568        1.528723        2.466098       17.892656
      6.805000        0.344568        1.528723        2.466098       17.892656
      6.815000        0.344568        1.528723        2.466098       17.892656
      6.825000        0.344568        1.528723        2.466098       17.892656
      6.835000        0.344568        1.528723        2.466098       17.892656
      6.845000        0.344568        1.528723        2.466098       17.892656
      6.855000        0.344568        1.528723        2.466098       17.892656
      6.865000        0.344568        1.528723        2.466098       17.892656
      6.875000        0.344568        1.528723        2.466098       17.892656
      6.885000        0.344568        1.528723        2.466098       17.892656
      6.895000        0.344568        1.528723        2.466098       17.892656
      6.905000        0.344568        1.528723        2.466098       17.892656
      6.915000        0.344568        1.528723        2.466098       17.892656
      6.925000        0.344568        1.528723        2.466098       17.892656
      6.935000        0.344568        1.528723        2.466098       17.892656
      6.945000        0.344568        1.528723        2.466098       17.892656
      6.955000        0.344568        1.528723        2.466098       17.892656
      6.965000        0.344568        1.528723        2.466098       17.892656
      6.975000        0.344568        1.528723        2.466098       17.892656
      6.985000        0.344568        1.528723        2.466098       17.892656
      6.995000        1.304084        1.528723        2.466098        4.727642
      7.005000        1.304084        1.528723        2.466098        4.727642
      7.015000        1.304084        1.528723        2.466098        4.727642
      7.025000        1.304084        1.528723        2.466098        4.727642
      7.035000        1.304084        1.528723        2.466098        4.727642
      7.045000        1.304084        1.528723        2.466098        4.727642
      7.055000        1.304084        1.528723        2.466098        4.727642
      7.065000        1.304084        1.528723        2.466098        4.727642
      7.075000        1.304084        1.528723        2.466098        4.727642
      7.085000        1.304084        1.528723        2.466098        4.727642
      7.095000        1.304084        1.528723        2.466098        4.727642
      7.105000        1.304084        1.528723        2.466098        4.727642
      7.115000        1.304084        1.528723        2.466098        4.727642
      7.125000        1.304084        1.528723        2.466098        4.727642
      7.135000        1.304084        1.528723        2.466098        4.727642
      7.145000        1.304084        1.528723        2.466098        4.727642
      7.155000        1.304084        1.528723        2.466098        4.727642
      7.165000        1.304084        1.528723        2.466098        4.727642
      7.175000        1.304084        1.528723        2.466098        4.727642
      7.185000        1.304084        1.528723        2.466098        4.727642
      7.195000        1.304084        1.528723        2.466098        4.727642
      7.205000        1.304084        1.528723        2.466098        4.727642
      7.215000        1.304084        1.528723        2.466098        4.727642
      7.225000        1.304084        1.528723        2.466098        4.727642
      7.235000        1.304084        1.528723        2.466098        4.727642
      7.245000        1.304084        1.528723        2.466098        4.727642
      7.255000        1.304084        1.528723        2.466098        4.727642
      7.265000        1.304084        1.528723        2.466098        4.727642
      7.275000        1.304084        1.528723        2.466098        4.727642
      7.285000        1.304084        1.528723        2.466098        4.727642
      7.295000        1.304084        1.528723        2.466098        4.727642
      7.305000        1.304084        1.528723        2.466098        4.727642
      7.315000        1.304084        1.528723        2.466098        4.727642
      7.325000        1.304084        1.528723        2.466098        4.727642
      7.335000        1.304084        1.528723        2.466098        4.727642
      7.345000        1.304084        1.528723        2.466098        4.727642
      7.355000        1.304084        1.528723        2.466098        4.727642
      7.365000        1.304084        1.528723        2.466098        4.727642
      7.375000        1.304084        1.528723        2.466098        4.727642
      7.385000        1.304084        1.528723        2.466098        4.727642
      7.395000        1.304084        1.528723        2.466098        4.727642
      7.405000        1.304084        1.528723        2.466098        4.727642
      7.415000        1.304084        1.528723        2.466098        4.727642
      7.425000        1.304084        1.528723        2.466098        4.727642
      7.435000        1.304084        1.528723        2.466098        4.727642
      7.445000        1.304084        1.528723        2.466098        4.727642
      7.455000        1.304084        1.528723        2.466098        4.727642
      7.465000        1.304084        1.528723        2.466098        4.727642
      7.475000        1.304084        1.528723        2.466098        4.727642
      7.485000        1.304084        1.528723        2.466098        4.727642
      7.495000        1.304084        1.528723        2.466098        4.727642
      7.505000        1.304084        1.528723        2.466098        4.727642
      7.515000        1.304084        1.528723        2.466098        4.727642
      7.525000        1.304084        1.528723        2.466098        4.727642
      7.535000        1.304084        1.528723        2.466098        4.727642
      7.545000        1.304084        1.528723        2.466098        4.727642
      7.555000        1.304084        1.528723        2.466098        4.727642
      7.565000        1.304084        1.528723        2.466098        4.727642
      7.575000        1.304084        1.528723        2.466098        4.727642
      7.585000        1.304084        1.528723        2.466098        4.727642
      7.595000        1.304084        1.528723        2.466098        4.727642
      7.605000        1.304084        1.528723        2.466098        4.727642
      7.615000        1.304084        1.528723        2.466098        4.727642
      7.625000        1.304084        1.528723        2.466098        4.727642
      7.635000        1.304084        1.528723        2.466098        4.727642
      7.645000        1.304084        1.528723        2.466098        4.727642
      7.655000        1.304084        1.528723        2.466098        4.727642
      7.665000        1.304084        1.528723        2.466098        4.727642
      7.675000        1.304084        1.528723        2.466098        4.727642
      7.685000        1.304084        1.528723        2.466098        4.727642
      7.695000        1.304084        1.528723        2.466098        4.727642
      7.705000        1.304084        1.528723        2.466098        4.727642
      7.715000        1.304084        1.528723        2.466098        4.727642
      7.725000        1.304084        1.528723        2.466098        4.727642
      7.735000        1.304084        1.528723        2.466098        4.727642
      7.745000        1.304084        1.528723        2.466098        4.727642
      7.755000        1.304084        1.528723        2.466098        4.727642
      7.765000        1.304084        1.528723        2.466098        4.727642
      7.775000        1.304084        1.528723        2.466098        4.727642
      7.785000        1.304084        1.528723        2.466098        4.727642
      7.795000        1.304084        1.528723        2.466098        4.727642
      7.805000        1.304084        1.528723        2.466098        4.727642
      7.815000        1.304084        1.528723        2.466098        4.727642
      7.825000        1.304084        1.528723        2.466098        4.727642
      7.835000        1.304084        1.528723        2.466098        4.727642
      7.845000        1.304084        1.528723        2.466098        4.727642
      7.855000        1.304084        1.528723        2.466098        4.727642
      7.865000        1.304084        1.528723        2.466098        4.727642
      7.875000        1.304084        1.528723        2.466098        4.727642
      7.885000        1.304084        1.528723        2.466098        4.727642
      7.895000        1.304084        1.528723        2.466098        4.727642
      7.905000        1.304084        1.528723        2.466098        4.727642
      7.915000        1.304084        1.528723        2.466098        4.727642
      7.925000        1.304084        1.528723        2.466098        4.727642
      7.935000        1.304084        1.528723        2.466098        4.727642
      7.945000        1.304084        1.528723        2.466098        4.727642
      7.955000        1.304084        1.528723        2.466098        4.727642
      7.965000        1.304084        1.528723        2.466098        4.727642
      7.975000        1.304084        1.528723        2.466098        4.727642
      7.985000        1.304084        1.528723        2.466098        4.727642
      7.995000        1.304084        1.528723        2.466098        4.727642
      8.005000        1.304084        1.528723        2.466098        4.727642
      8.014999        1.304084        1.528723        2.466098        4.727642
      8.025000        1.304084        1.528723        2.466098        4.727642
      8.035000        1.304084        1.528723        2.466098        4.727642
      8.045000        1.304084        1.528723        2.466098        4.727642
      8.054999        1.304084        1.528723        2.466098        4.727642
      8.065000        1.304084        1.528723        2.466098        4.727642
      8.075000        1.304084        1.528723        2.466098        4.727642
      8.085000        1.304084        1.528723        2.466098        4.727642
      8.095000        1.304084        1.528723        2.466098        4.727642
      8.105000        1.304084        1.528723        2.466098        4.727642
      8.115000        1.304084        1.528723        2.466098        4.727642
      8.125000        1.304084        1.528723        2.466098        4.727642
      8.135000        1.304084        1.528723        2.466098        4.727642
      8.145000        1.304084        1.528723        2.466098        4.727642
      8.155000        1.304084        1.528723        2.466098        4.727642
      8.165000        1.304084        1.528723        2.466098        4.727642
      8.175000        1.304084        1.528723        2.466098        4.727642
      8.184999        1.304084        1.528723        2.466098        4.727642
      8.195000        1.304084        1.528723        2.466098        4.727642
      8.205000        1.304084        1.528723        2.466098        4.727642
      8.215000        1.304084        1.528723        2.466098        4.727642
      8.224999        0.500000        0.000000        0.571000        2.855000
      8.235000        0.500000        0.000000        0.571000        2.855000
      8.245000        0.500000        0.000000        0.571000        2.855000
      8.255000        0.500000        0.000000        0.571000        2.855000
      8.264999        0.500000        0.000000        0.571000        2.855000
      8.275000        0.500000        0.000000        0.571000        2.855000
      8.285000        0.500000        0.000000        0.571000        2.855000
      8.295000        0.500000        0.000000        0.571000        2.855000
      8.304999        0.500000        0.000000        0.571000        2.855000
      8.315000        0.500000        0.000000        0.571000        2.855000
      8.325000        0.500000        0.000000        0.571000        2.855000
      8.335000        0.500000        0.000000        0.571000        2.855000
      8.345000        0.500000        0.000000        0.571000        2.855000
      8.355000        0.500000        0.000000        0.571000        2.855000
      8.365000        0.500000        0.000000        0.571000        2.855000
      8.375000        0.500000        0.000000        0.571000        2.855000
      8.385000        0.500000        0.000000        0.571000        2.855000
      8.395000        0.500000        0.000000        0.571000        2.855000
      8.405000        0.500000        0.000000        0.571000        2.855000
      8.415000        0.500000        0.000000        0.571000        2.855000
      8.425000        0.500000        0.000000        0.571000        2.855000
      8.434999        0.500000        0.000000        0.571000        2.855000
      8.445000        0.500000        0.000000        0.571000        2.855000
      8.455000        0.500000        0.000000        0.571000        2.855000
      8.465000        0.500000        0.000000        0.571000        2.855000
      8.474999        0.500000        0.000000        0.571000        2.855000
      8.485000        0.500000        0.000000        0.571000        2.855000
      8.495000        0.500000        0.000000        0.571000        2.855000
      8.505000        0.500000        0.000000        0.571000        2.855000
      8.514999        0.500000        0.000000        0.571000        2.855000
      8.525000        0.500000        0.000000        0.571000        2.855000
      8.535000        0.500000        0.000000        0.571000        2.855000
      8.545000        0.500000        0.000000        0.571000        2.855000
      8.554999        0.500000        0.000000        0.571000        2.855000
      8.565000        0.500000        0.000000        0.571000        2.855000
      8.575000        0.500000        0.000000        0.571000        2.855000
      8.585000        0.500000        0.000000        0.571000        2.855000
      8.595000        0.500000        0.000000        0.571000        2.855000
      8.605000        0.500000        0.000000        0.571000        2.855000
      8.615000        0.500000        0.000000        0.571000        2.855000
      8.625000        0.500000        0.000000        0.571000        2.855000
      8.635000        0.500000        0.000000        0.571000        2.855000
      8.645000        0.500000        0.000000        0.571000        2.855000
      8.655000        0.500000        0.000000        0.571000        2.855000
      8.665000        0.500000        0.000000        0.571000        2.855000
      8.675000        0.500000        0.000000        0.571000        2.855000
      8.684999        0.500000        0.000000        0.571000        2.855000
      8.695000        0.500000        0.000000        0.571000        2.855000
      8.705000        0.500000        0.000000        0.571000        2.855000
      8.715000        0.500000        0.000000        0.571000        2.855000
      8.724999        0.500000        0.000000        0.571000        2.855000
      8.735000        0.500000        0.000000        0.571000        2.855000
      8.745000        0.500000        0.000000        0.571000        2.855000
      8.755000        0.500000        0.000000        0.571000        2.855000
      8.764999        0.500000        0.000000        0.571000        2.855000
      8.775000        0.500000        0.000000        0.571000        2.855000
      8.785000        0.500000        0.000000        0.571000        2.855000
      8.795000        0.500000        0.000000        0.571000        2.855000
      8.804999        0.500000        0.000000        0.571000        2.855000
      8.815000        0.500000        0.000000        0.571000        2.855000
      8.825000        0.500000        0.000000        0.571000        2.855000
      8.835000        0.500000        0.000000        0.571000        2.855000
      8.845000        0.500000        0.000000        0.571000        2.855000
      8.855000        0.500000        0.000000        0.571000        2.855000
      8.865000        0.500000        0.000000        0.571000        2.855000
      8.875000        0.500000        0.000000        0.571000        2.855000
      8.885000        0.500000        0.000000        0.571000        2.855000
      8.895000        0.500000        0.000000        0.571000        2.855000
      8.905000        0.500000        0.000000        0.571000        2.855000
      8.915000        0.500000        0.000000        0.571000        2.855000
      8.925000        0.500000        0.000000        0.571000        2.855000
      8.934999        0.500000        0.000000        0.571000        2.855000
      8.945000        0.500000        0.000000        0.571000        2.855000
      8.955000        0.500000        0.000000        0.571000        2.855000
      8.965000        0.500000        0.000000        0.571000        2.855000
      8.974999        0.500000        0.000000        0.571000        2.855000
      8.985000        0.500000        0.000000        0.571000        2.855000
      8.995000        0.500000        0.000000        0.571000        2.855000
      9.005000        0.500000        0.000000        0.571000        2.855000
      9.014999        0.500000        0.000000        0.571000        2.855000
      9.025000        0.500000        0.000000        0.571000        2.855000
      9.035000        0.500000        0.000000        0.571000        2.855000
      9.045000        0.500000        0.000000        0.571000        2.855000
      9.054999        0.500000        0.000000        0.571000        2.855000
      9.065000        0.500000        0.000000        0.571000        2.855000
      9.075000        0.500000        0.000000        0.571000        2.855000
      9.085000        0.500000        0.000000        0.571000        2.855000
      9.095000        0.500000        0.000000        0.571000        2.855000
      9.105000        0.500000        0.000000        0.571000        2.855000
      9.115000        0.500000        0.000000        0.571000        2.855000
      9.125000        0.500000        0.000000        0.571000        2.855000
      9.135000        0.500000        0.000000        0.571000        2.855000
      9.145000        0.500000        0.000000        0.571000        2.855000
      9.155000        0.500000        0.000000        0.571000        2.855000
      9.165000        0.500000        0.000000        0.571000        2.855000
      9.175000        0.500000        0.000000        0.571000        2.855000
      9.184999        0.500000        0.000000        0.571000        2.855000
      9.195000        0.500000        0.000000        0.571000        2.855000
      9.205000        0.500000        0.000000        0.571000        2.855000
      9.215000        0.500000        0.000000        0.571000        2.855000
      9.224999        0.500000        0.000000        0.571000        2.855000
      9.235000        0.500000        0.000000        0.571000        2.855000
      9.245000        0.500000        0.000000        0.571000        2.855000
      9.255000        0.500000        0.000000        0.571000        2.855000
      9.264999        0.500000        0.000000        0.571000        2.855000
      9.275000        0.500000        0.000000        0.571000        2.855000
      9.285000        0.500000        0.000000        0.571000        2.855000
      9.295000        0.500000        0.000000        0.571000        2.855000
      9.304999        0.500000        0.000000        0.571000        2.855000
      9.315000        0.500000        0.000000        0.571000        2.855000
      9.325000        0.500000        0.000000        0.571000        2.855000
      9.335000        0.500000        0.000000        0.571000        2.855000
      9.345000        0.500000        0.000000        0.571000        2.855000
      9.355000        0.500000        0.000000        0.571000        2.855000
      9.365000        0.500000        0.000000        0.571000        2.855000
      9.375000        0.500000        0.000000        0.571000        2.855000
      9.385000        0.500000        0.000000        0.571000        2.855000
      9.395000        0.500000        0.000000        0.571000        2.855000
      9.405000        0.500000        0.000000        0.571000        2.855000
      9.415000        0.500000        0.000000        0.571000        2.855000
      9.425000        0.500000        0.000000        0.571000        2.855000
      9.434999        0.500000        0.000000        0.571000        2.855000
      9.445000        0.500000        0.000000        0.571000        2.855000
      9.455000        0.500000        0.000000        0.571000        2.855000
      9.465000        0.500000        0.000000        0.571000        2.855000
      9.474999        0.500000        0.000000        0.571000        2.855000
      9.485000        0.500000        0.000000        0.571000        2.855000
      9.495000        0.500000        0.000000        0.571000        2.855000
      9.505000        0.500000        0.000000        0.571000        2.855000
      9.514999        0.500000        0.000000        0.571000        2.855000
      9.525000        0.500000        0.000000        0.571000        2.855000
      9.535000        0.500000        0.000000        0.571000        2.855000
      9.545000        0.500000        0.000000        0.571000        2.855000
      9.554999        0.500000        0.000000        0.571000        2.855000
      9.565000        0.500000        0.000000        0.571000        2.855000
      9.575000        0.500000        0.000000        0.571000        2.855000
      9.585000        0.500000        0.000000        0.571000        2.855000
      9.594999        0.500000        0.000000        0.571000        2.855000
      9.605000        0.500000        0.000000        0.571000        2.855000
      9.615000        0.500000        0.000000        0.571000        2.855000
      9.625000        0.500000        0.000000        0.571000        2.855000
      9.635000        0.500000        0.000000        0.571000        2.855000
      9.645000        0.500000        0.000000        0.571000        2.855000
      9.655000        0.500000        0.000000        0.571000        2.855000
      9.665000        0.500000        0.000000        0.571000        2.855000
      9.675000        0.500000        0.000000        0.571000        2.855000
      9.684999        0.500000        0.000000        0.571000        2.855000
      9.695000        0.500000        0.000000        0.571000        2.855000
      9.705000        0.500000        0.000000        0.571000        2.855000
      9.715000        0.500000        0.000000        0.571000        2.855000
      9.724999        0.500000        0.000000        0.571000        2.855000
      9.735000        0.500000        0.000000        0.571000        2.855000
      9.745000        0.500000        0.000000        0.571000        2.855000
      9.755000        0.500000        0.000000        0.571000        2.855000
      9.764999        0.500000        0.000000        0.571000        2.855000
      9.775000        0.500000        0.000000        0.571000        2.855000
      9.785000        0.500000        0.000000        0.571000        2.855000
      9.795000        0.500000        0.000000        0.571000        2.855000
      9.804999        0.500000        0.000000        0.571000        2.855000
      9.815000        0.500000        0.000000        0.571000        2.855000
      9.825000        0.500000        0.000000        0.571000        2.855000
      9.835000        0.500000        0.000000        0.571000        2.855000
      9.844999        0.500000        0.000000        0.571000        2.855000
      9.855000        0.500000        0.000000        0.571000        2.855000
      9.865000        0.500000        0.000000        0.571000        2.855000
      9.875000        0.500000        0.000000        0.571000        2.855000
      9.885000        0.500000        0.000000        0.571000        2.855000
      9.895000        0.500000        0.000000        0.571000        2.855000
      9.905000        0.500000        0.000000        0.571000        2.855000
      9.915000        0.500000        0.000000        0.571000        2.855000
      9.925000        0.500000        0.000000        0.571000        2.855000
      9.934999        0.500000        0.000000        0.571000        2.855000
      9.945000        0.500000        0.000000        0.571000        2.855000
      9.955000        0.500000        0.000000        0.571000        2.855000
      9.965000        0.500000        0.000000        0.571000        2.855000
      9.974999        0.500000        0.000000        0.571000        2.855000
      9.985000        0.500000        0.000000        0.571000        2.855000
      9.995000        0.500000        0.000000        0.571000        2.855000
